##############################################################
###	PORTRAITS SETTINGS
###
### Which portraits are used is set in 
### common\species_classes\00_species_classes.txt
###
###	This file configures how portraits and planet backgrounds are built.
###	Default position orientation is lower left.
##############################################################

portraits = {
	# imperial
	imperial_female_01 = {	entity = "portrait_human_female_01_entity" clothes_selector = "imperial_female_clothes_01" hair_selector = "imperial_female_hair_01" greeting_sound = "human_female_greetings_03"}
	imperial_female_02 = {	entity = "portrait_human_female_02_entity" clothes_selector = "imperial_female_clothes_01" hair_selector = "imperial_female_hair_02" greeting_sound = "human_female_greetings_04"}
	imperial_female_03 = {	entity = "portrait_human_female_03_entity" clothes_selector = "imperial_female_clothes_01" hair_selector = "imperial_female_hair_03" greeting_sound = "human_female_greetings_05"}	
	imperial_female_04 = {	entity = "portrait_human_female_04_entity" clothes_selector = "imperial_female_clothes_01" hair_selector = "imperial_female_hair_04" greeting_sound = "human_female_greetings_01"}
	imperial_female_05 = {	entity = "portrait_human_female_05_entity" clothes_selector = "imperial_female_clothes_01" hair_selector = "imperial_female_hair_05" greeting_sound = "human_female_greetings_02"}
	imperial_male_01 = { entity = "portrait_human_male_01_entity" clothes_selector = "imperial_male_clothes_01" hair_selector = "imperial_male_hair_01" greeting_sound = "human_male_greetings_03" }	
	imperial_male_02 = { entity = "portrait_human_male_02_entity" clothes_selector = "imperial_male_clothes_01" hair_selector = "imperial_male_hair_02" greeting_sound = "human_male_greetings_04" }
	imperial_male_03 = { entity = "portrait_human_male_03_entity" clothes_selector = "imperial_male_clothes_01" hair_selector = "imperial_male_hair_03" greeting_sound = "human_male_greetings_05" }		
	imperial_male_04 = { entity = "portrait_human_male_04_entity" clothes_selector = "imperial_male_clothes_01" hair_selector = "imperial_male_hair_04" greeting_sound = "human_male_greetings_01" }
	imperial_male_05 = { entity = "portrait_human_male_05_entity" clothes_selector = "imperial_male_clothes_01" hair_selector = "imperial_male_hair_05" greeting_sound = "human_male_greetings_02" }
}

portrait_groups = {
	imperial = {
		default = imperial_male_02
		game_setup = { #will run with a limited country scope. species and government is set but the country does not actually exist
			add = {
				trigger = {
					ruler = { gender = male }
				}
				portraits = {
					imperial_male_01
					imperial_male_02
					imperial_male_03
					imperial_male_04
					imperial_male_05
				}
			}
			add = {
				trigger = {
					ruler = { gender = female }
				}
				portraits = {
					imperial_female_01
					imperial_female_02
					imperial_female_03
					imperial_female_04
					imperial_female_05
				}
			}
		}		
		
		#species scope
		species = { #generic portrait for a species
			add = {
				portraits = {
					imperial_female_01
					imperial_female_02
					imperial_female_03					
					imperial_female_04
					imperial_female_05
					imperial_male_01
					imperial_male_02
					imperial_male_03					
					imperial_male_04
					imperial_male_05
				}
			}
		}		
		
		#pop scope
		pop = { #for a specific pop
			add = {
				portraits = {
					imperial_female_01
					imperial_female_02
					imperial_female_03				
					imperial_female_04
					imperial_female_05
					imperial_male_01
					imperial_male_02
					imperial_male_03					
					imperial_male_04
					imperial_male_05

				}
			}
		}
		
		#leader scope
		leader = { #scientists, generals, admirals, governor
			add = {
				trigger = {
					gender = female
				}
				portraits = {
					imperial_female_01
					imperial_female_02
					imperial_female_03					
					imperial_female_04
					imperial_female_05
				}
			}
			add = {
				trigger = {
					gender = male
				}
				portraits = {
					imperial_male_01
					imperial_male_02
					imperial_male_03					
					imperial_male_04
					imperial_male_05
				}
			}
		}

			
		#leader scope 
		ruler = {
			add = {
				trigger = {
					gender = female
				}
				portraits = {
					imperial_female_01
					imperial_female_02
					imperial_female_03					
					imperial_female_04
					imperial_female_05
				}
			}
			add = {
				trigger = {
					gender = male
				}
				portraits = {
					imperial_male_01
					imperial_male_02
					imperial_male_03					
					imperial_male_04
					imperial_male_05
				}
			}
		}
	}
}